Inference with xgboost • TidyConsultant
…
We can extract all the trees that contain the specified
interaction.

imps[1,1] %>% unlist -> top_interaction

xg_trees_interactions %>%
  filter(str_detect(interactions, top_interaction)) %>% 
  distinct -> top_interaction_trees

top_interaction_trees
#> # A tibble: 23 × 2
#>     Tree interactions                     
#>    <int> <chr>                            
#>  1     2 satisfaction_level:number_project
#>  2     4 satisfaction_level:number_project
#>  3     7 satisfaction_level:number_project
#>  4    11 satisfaction_level:number_project
#>  5    12 satisfaction_level:number_project
#>  6    16 satisfaction_level:number_project
#>  7    17 satisfaction_level:number_project
#>  8    18 satisfaction_level:number_project
#>  9    19 satisfaction_level:number_project
#> 10    20 satisfaction_level:number_project
#> # ℹ 13 more rows
…
xgboost::xgb.plot.tree(model = xg1, trees = top_trees)

By looking at the 3 most important splits for satisfaction_level we
can get a sense of how its splits affect the outcome.

shapley values

xg1 %>% 
  tidy_shap(hr1, form = hrf) -> hr_shaps

hr_shaps
#> $shap_tbl
#> # A tibble: 14,999 × 21
#>    satisfaction_level last_evaluation number_project average_montly_hours
#>                 <dbl>           <dbl>          <dbl>                <dbl>
#>  1              1.04           0.0302          1.30                0.0846
#>  2             -0.350          0.362          -0.294               0.213 
#>  3              3.63           0.195          -0.264               0.142 
#>  4             -0.380          0.364          -0.321               0.0841
#>  5              1.04           0.0302          1.30                0.0564
#>  6              1.04           0.0302          1.30                0.0846
#>  7              3.66          -0.147          -0.290               0.123 
#>  8             -0.349          0.364          -0.294               0.213 
#>  9             -0.326          0.797          -0.316               0.0841
#> 10              1.04           0.0302          1.30                0.0846
#> # ℹ 14,989 more rows
#> # ℹ 17 more variables: time_spend_company <dbl>, Work_accident <dbl>,
#> #   promotion_last_5years <dbl>, sales_accounting <dbl>, sales_hr <dbl>,
#> #   sales_it <dbl>, sales_management <dbl>, sales_marketing <dbl>,
#> #   sales_product_mng <dbl>, sales_rand_d <dbl>, sales_sales <dbl>,
#> #   sales_support <dbl>, sales_technical <dbl>, salary_high <dbl>,
#> #   salary_low <dbl>, salary_medium <dbl>, `(Intercept)` <dbl>
#> 
#> $shaps_long
#> # A tibble: 314,979 × 3
#>    name         SHAP FEATURE
#>    <chr>       <dbl>   <dbl>
#>  1 (Intercept) -1.18      NA
#>  2 (Intercept) -1.18      NA
#>  3 (Intercept) -1.18      NA
#>  4 (Intercept) -1.18      NA
#>  5 (Intercept) -1.18      NA
#>  6 (Intercept) -1.18      NA
#>  7 (Intercept) -1.18      NA
#>  8 (Intercept) -1.18      NA
#>  9 (Intercept) -1.18      NA
#> 10 (Intercept) -1.18      NA
#> # ℹ 314,969 more rows
#> 
#> $shap_summary
#> # A tibble: 21 × 5
#>    name                     cor     var      sum sum_abs
#>    <chr>                  <dbl>   <dbl>    <dbl>   <dbl>
#>  1 (Intercept)           NA     0       -17715.   17715.
#>  2 satisfaction_level    -0.760 1.25     -2186.   12999.
#>  3 number_project        -0.590 0.363    -2361.    8157.
#>  4 time_spend_company     0.711 0.408    -3111.    7693.
#>  5 last_evaluation        0.624 0.0555    -455.    3011.
#>  6 average_montly_hours   0.591 0.0329    -152.    1966.
#>  7 Work_accident         -0.994 0.00728    -93.8    828.
#>  8 salary_low             0.958 0.00136    -28.7    531.
#>  9 promotion_last_5years NA     0            0        0 
#> 10 salary_high           NA     0            0        0 
#> # ℹ 11 more rows
…
