TidyConsultant • TidyConsultant
…
library(TidyConsultant)
library(tidyverse)
#> ── Attaching packages ─────────────────────────────────────── tidyverse 1.3.1 ──
#> ✓ ggplot2 3.3.5     ✓ purrr   0.3.4
#> ✓ tibble  3.1.5     ✓ dplyr   1.0.7
#> ✓ tidyr   1.1.4     ✓ stringr 1.4.0
#> ✓ readr   2.0.2     ✓ forcats 0.5.1
#> ── Conflicts ────────────────────────────────────────── tidyverse_conflicts() ──
#> x dplyr::filter() masks stats::filter()
#> x dplyr::lag()    masks stats::lag()

insurance
#> # A tibble: 1,338 × 7
#>      age sex      bmi children smoker region    charges
#>    <int> <chr>  <dbl>    <int> <chr>  <chr>       <dbl>
#>  1    19 female  27.9        0 yes    southwest  16885.
#>  2    18 male    33.8        1 no     southeast   1726.
#>  3    28 male    33          3 no     southeast   4449.
#>  4    33 male    22.7        0 no     northwest  21984.
#>  5    32 male    28.9        0 no     northwest   3867.
#>  6    31 female  25.7        0 no     southeast   3757.
#>  7    46 female  33.4        1 no     southeast   8241.
#>  8    37 female  27.7        3 no     northwest   7282.
#>  9    37 male    29.8        2 no     northeast   6406.
#> 10    60 female  25.8        0 no     northwest  28923.
#> # … with 1,328 more rows
…
