Inference with xgboost • TidyConsultant
…
xg_trees %>%
  collapse_tree -> xg_trees_interactions

find the top interactions in the model. The interactions are rated
with different importance metrics, ordered by sumGain.

imps <- EIX::importance(xg1, hr1, option = "interactions")
as_tibble(imps) %>% 
  set_int(where(is.numeric))
#> # A tibble: 30 × 7
#>    Feature                       sumGain sumCo…¹ meanG…² meanC…³ frequ…⁴ mean5…⁵
#>    <chr>                           <int>   <int>   <int>   <int>   <int>   <int>
#>  1 satisfaction_level:time_spen…    2908    6206     484    1034       6     576
#>  2 last_evaluation:satisfaction…    1076    3158     358    1053       3     358
#>  3 last_evaluation:time_spend_c…     781    1295     391     647       2     391
#>  4 last_evaluation:average_mont…     719    1294     239     431       3     239
#>  5 number_project:last_evaluati…     548    4168      78     595       7     104
#>  6 time_spend_company:satisfact…     366    1018     122     339       3     122
#>  7 average_montly_hours:last_ev…     293    1438      97     479       3      97
#>  8 satisfaction_level:last_eval…     261    1720      52     344       5      52
#>  9 average_montly_hours:number_…     248    1558     124     779       2     124
#> 10 satisfaction_level:average_m…     209    1448      69     482       3      69
#> # … with 20 more rows, and abbreviated variable names ¹​sumCover, ²​meanGain,
#> #   ³​meanCover, ⁴​frequency, ⁵​mean5Gain
…
xgboost::xgb.plot.tree(model = xg1, trees = top_trees)

By looking at the 3 most important splits for satisfaction_level we
can get a sense of how its splits affect the outcome.

shapley values

xg1 %>% 
  tidy_shap(hr1, form = hrf) -> hr_shaps

hr_shaps
#> $shap_tbl
#> # A tibble: 14,999 × 20
#>    satisfacti…¹ last_e…² numbe…³ avera…⁴ time_…⁵ Work_…⁶ promo…⁷ sales…⁸ sales…⁹
#>           <dbl>    <dbl>   <dbl>   <dbl>   <dbl>   <dbl>   <dbl>   <dbl>   <dbl>
#>  1        2.03   0.555    1.35    0.724  -0.151   0.115        0       0       0
#>  2        0.518  0.685    0.237   0.545   1.66    0.0963       0       0       0
#>  3        6.41   0.00654  4.02    0.108   0.0832  0.0564       0       0       0
#>  4        0.272  0.608    0.130   0.135   2.21    0.107        0       0       0
#>  5        2.10   0.480    1.35    0.724  -0.151   0.115        0       0       0
#>  6        2.10   0.481    1.35    0.723  -0.151   0.115        0       0       0
#>  7        7.00  -0.548   -0.0291 -0.0940 -0.0586  0.0672       0       0       0
#>  8        0.127  0.680    0.181   0.533   2.21    0.0969       0       0       0
#>  9        0.377  2.16     0.158   0.131   2.25    0.107        0       0       0
#> 10        2.03   0.555    1.35    0.724  -0.151   0.115        0       0       0
#> # … with 14,989 more rows, 11 more variables: sales_IT <dbl>,
#> #   sales_management <dbl>, sales_marketing <dbl>, sales_product_mng <dbl>,
#> #   sales_RandD <dbl>, sales_sales <dbl>, sales_support <dbl>,
#> #   sales_technical <dbl>, salary_high <dbl>, salary_low <dbl>,
#> #   salary_medium <dbl>, and abbreviated variable names ¹​satisfaction_level,
#> #   ²​last_evaluation, ³​number_project, ⁴​average_montly_hours,
#> #   ⁵​time_spend_company, ⁶​Work_accident, ⁷​promotion_last_5years, …
…
