TidyConsultant • TidyConsultant
…
92.4319

rsq

0.84

0.0119

create bins with tidybins

insurance1 %>% 
  bin_cols(charges) -> insurance_bins

insurance_bins
#> # A tibble: 1,338 × 10
#>    charges…¹   age   bmi child…² charges sex_f…³ smoke…⁴ regio…⁵ regio…⁶ regio…⁷
#>        <int> <int> <dbl>   <int>   <dbl>   <int>   <int>   <int>   <int>   <int>
#>  1         8    19  27.9       0  16885.       1       1       0       0       1
#>  2         1    18  33.8       1   1726.       0       0       0       0       0
#>  3         3    28  33         3   4449.       0       0       0       0       0
#>  4         9    33  22.7       0  21984.       0       0       0       1       0
#>  5         2    32  28.9       0   3867.       0       0       0       1       0
#>  6         2    31  25.7       0   3757.       1       0       0       0       0
#>  7         5    46  33.4       1   8241.       1       0       0       0       0
#>  8         4    37  27.7       3   7282.       1       0       0       1       0
#>  9         4    37  29.8       2   6406.       0       0       1       0       0
#> 10         9    60  25.8       0  28923.       1       0       0       1       0
#> # … with 1,328 more rows, and abbreviated variable names ¹​charges_fr10,
#> #   ²​children, ³​sex_female, ⁴​smoker_yes, ⁵​region_northeast, ⁶​region_northwest,
#> #   ⁷​region_southwest
…
